[
{"name": "idwell","type": "STRING","mode": "REQUIRED"},
{"name": "idrecparent","type": "STRING","mode": "NULLABLE"},
{"name": "idrec","type": "STRING","mode": "REQUIRED"},
{"name": "idreclastcascalctk","type": "STRING","mode": "NULLABLE"},
{"name": "idreclastrigcalctk","type": "STRING","mode": "NULLABLE"},
{"name": "idrecwellborecalctk","type": "STRING","mode": "NULLABLE"},
{"name": "idrecjobprogramphasecalctk","type": "STRING","mode": "NULLABLE"},
{"name": "BHATotalRunCalc","type": "STRING","mode": "NULLABLE"},
{"name": "BitRevsCalc","type": "STRING","mode": "NULLABLE"},
{"name": "CondHole","type": "STRING","mode": "NULLABLE"},
{"name": "CondLease","type": "STRING","mode": "NULLABLE"},
{"name": "CondRoad","type": "STRING","mode": "NULLABLE"},
{"name": "CondTemp","type": "STRING","mode": "NULLABLE"},
{"name": "CondWave","type": "STRING","mode": "NULLABLE"},
{"name": "CondWeather","type": "STRING","mode": "NULLABLE"},
{"name": "CondWind","type": "STRING","mode": "NULLABLE"},
{"name": "ContactCalc","type": "STRING","mode": "NULLABLE"},
{"name": "CostForecastFieldVarCalc","type": "STRING","mode": "NULLABLE"},
{"name": "CostJobSupplyAmtCalc","type": "STRING","mode": "NULLABLE"},
{"name": "CostJobSupplyAmtNormCalc","type": "STRING","mode": "NULLABLE"},
{"name": "CostJobSupplyAmtToDateCalc","type": "STRING","mode": "NULLABLE"},
{"name": "CostJobSupplyAmtToDtNCalc","type": "STRING","mode": "NULLABLE"},
{"name": "CostMudAddCalc","type": "STRING","mode": "NULLABLE"},
{"name": "CostMudAddNormCalc","type": "STRING","mode": "NULLABLE"},
{"name": "CostMudAddToDateCalc","type": "STRING","mode": "NULLABLE"},
{"name": "CostMudAddToDateNormCalc","type": "STRING","mode": "NULLABLE"},
{"name": "CostNormForecastFieldVarCalc","type": "STRING","mode": "NULLABLE"},
{"name": "CostPerDepthCalc","type": "STRING","mode": "NULLABLE"},
{"name": "CostPerDepthCumCalc","type": "STRING","mode": "NULLABLE"},
{"name": "CostPerDepthNormCalc","type": "STRING","mode": "NULLABLE"},
{"name": "CostPerDepthVarCalc","type": "STRING","mode": "NULLABLE"},
{"name": "CostPerTLDurCalc","type": "STRING","mode": "NULLABLE"},
{"name": "CostPerTLDurNormCalc","type": "STRING","mode": "NULLABLE"},
{"name": "CostProjectedMaxJobCalc","type": "STRING","mode": "NULLABLE"},
{"name": "CostProjectedMaxJobNormCalc","type": "STRING","mode": "NULLABLE"},
{"name": "CostProjectedMaxPhaseCalc","type": "STRING","mode": "NULLABLE"},
{"name": "CostProjectedMaxPhaseNormCalc","type": "STRING","mode": "NULLABLE"},
{"name": "CostProjectedMinJobCalc","type": "STRING","mode": "NULLABLE"},
{"name": "CostProjectedMinJobNormCalc","type": "STRING","mode": "NULLABLE"},
{"name": "CostProjectedMinPhaseCalc","type": "STRING","mode": "NULLABLE"},
{"name": "CostProjectedMinPhaseNormCalc","type": "STRING","mode": "NULLABLE"},
{"name": "CostProjectedMLJobCalc","type": "STRING","mode": "NULLABLE"},
{"name": "CostProjectedMLJobNormCalc","type": "STRING","mode": "NULLABLE"},
{"name": "CostProjectedMLPhaseCalc","type": "STRING","mode": "NULLABLE"},
{"name": "CostProjectedMLPhaseNormCalc","type": "STRING","mode": "NULLABLE"},
{"name": "CostProjectedTLJobCalc","type": "STRING","mode": "NULLABLE"},
{"name": "CostProjectedTLJobNormCalc","type": "STRING","mode": "NULLABLE"},
{"name": "CostProjectedTLPhaseCalc","type": "STRING","mode": "NULLABLE"},
{"name": "CostProjectedTLPhaseNormCalc","type": "STRING","mode": "NULLABLE"},
{"name": "CostToDateCalc","type": "STRING","mode": "NULLABLE"},
{"name": "CostToDateNormCalc","type": "STRING","mode": "NULLABLE"},
{"name": "CostTotalCalc","type": "STRING","mode": "NULLABLE"},
{"name": "CostTotalNormCalc","type": "STRING","mode": "NULLABLE"},
{"name": "DaysFromSpudCalc","type": "STRING","mode": "NULLABLE"},
{"name": "DaysFromSpudtoRRCalc","type": "STRING","mode": "NULLABLE"},
{"name": "DepthEndDPCalc","type": "STRING","mode": "NULLABLE"},
{"name": "DepthEndDPCumCalc","type": "STRING","mode": "NULLABLE"},
{"name": "DepthEndDPNullCalc","type": "STRING","mode": "NULLABLE"},
{"name": "DepthNetProgressDPCalc","type": "STRING","mode": "NULLABLE"},
{"name": "DepthPerDurCalc","type": "STRING","mode": "NULLABLE"},
{"name": "DepthPerDurVarCalc","type": "STRING","mode": "NULLABLE"},
{"name": "DepthProgressDPCalc","type": "STRING","mode": "NULLABLE"},
{"name": "DepthRotatingCalc","type": "STRING","mode": "NULLABLE"},
{"name": "DepthSlidingCalc","type": "STRING","mode": "NULLABLE"},
{"name": "DepthStartDPCalc","type": "STRING","mode": "NULLABLE"},
{"name": "DepthStartDPNullCalc","type": "STRING","mode": "NULLABLE"},
{"name": "DepthTVDEndDPCalc","type": "STRING","mode": "NULLABLE"},
{"name": "DepthTVDEndProjMethod","type": "STRING","mode": "NULLABLE"},
{"name": "DepthTVDStartDPCalc","type": "STRING","mode": "NULLABLE"},
{"name": "DtTmEnd","type": "STRING","mode": "NULLABLE"},
{"name": "DtTmProjEndMaxJobCalc","type": "STRING","mode": "NULLABLE"},
{"name": "DtTmProjEndMaxPhaseCalc","type": "STRING","mode": "NULLABLE"},
{"name": "DtTmProjEndMinJobCalc","type": "STRING","mode": "NULLABLE"},
{"name": "DtTmProjEndMinPhaseCalc","type": "STRING","mode": "NULLABLE"},
{"name": "DtTmProjEndMLJobCalc","type": "STRING","mode": "NULLABLE"},
{"name": "DtTmProjEndMLPhaseCalc","type": "STRING","mode": "NULLABLE"},
{"name": "DtTmProjEndTLJobCalc","type": "STRING","mode": "NULLABLE"},
{"name": "DtTmProjEndTLPhaseCalc","type": "STRING","mode": "NULLABLE"},
{"name": "DtTmStart","type": "STRING","mode": "NULLABLE"},
{"name": "DurationNoProbTimeCalc","type": "STRING","mode": "NULLABLE"},
{"name": "DurationNoProbTimeCumCalc","type": "STRING","mode": "NULLABLE"},
{"name": "DurationPersonnelOTCalc","type": "STRING","mode": "NULLABLE"},
{"name": "DurationPersonnelRegCalc","type": "STRING","mode": "NULLABLE"},
{"name": "DurationPersonnelTotCalc","type": "STRING","mode": "NULLABLE"},
{"name": "DurationProblemTimeCalc","type": "STRING","mode": "NULLABLE"},
{"name": "DurationProblemTimeCumCalc","type": "STRING","mode": "NULLABLE"},
{"name": "DurationSinceLTInc","type": "STRING","mode": "NULLABLE"},
{"name": "DurationSinceRptInc","type": "STRING","mode": "NULLABLE"},
{"name": "DurationTimeLogCum12HrCalc","type": "STRING","mode": "NULLABLE"},
{"name": "DurationTimeLogCumSpudCalc","type": "STRING","mode": "NULLABLE"},
{"name": "DurationTimeLogCumSpudRRCalc","type": "STRING","mode": "NULLABLE"},
{"name": "DurationTimeLogTotalCalc","type": "STRING","mode": "NULLABLE"},
{"name": "DurationTimeLogTotCumCalc","type": "STRING","mode": "NULLABLE"},
{"name": "DurLastSIncCalc","type": "STRING","mode": "NULLABLE"},
{"name": "DurLastSIncReportCalc","type": "STRING","mode": "NULLABLE"},
{"name": "DurLastSIncReportRptDayCalc","type": "STRING","mode": "NULLABLE"},
{"name": "DurLastSIncRptDayCalc","type": "STRING","mode": "NULLABLE"},
{"name": "DurNoProbTimeCumDaysCalc","type": "STRING","mode": "NULLABLE"},
{"name": "DurOffBtmCalc","type": "STRING","mode": "NULLABLE"},
{"name": "DurOnBtmCalc","type": "STRING","mode": "NULLABLE"},
{"name": "DurPersonnelOTCumCalc","type": "STRING","mode": "NULLABLE"},
{"name": "DurPersonnelRegCumCalc","type": "STRING","mode": "NULLABLE"},
{"name": "DurPersonnelTotCumCalc","type": "STRING","mode": "NULLABLE"},
{"name": "DurPipeMovingCalc","type": "STRING","mode": "NULLABLE"},
{"name": "DurProblemTimeCumDaysCalc","type": "STRING","mode": "NULLABLE"},
{"name": "DurProjectedMaxJobCalc","type": "STRING","mode": "NULLABLE"},
{"name": "DurProjectedMaxPhaseCalc","type": "STRING","mode": "NULLABLE"},
{"name": "DurProjectedMinJobCalc","type": "STRING","mode": "NULLABLE"},
{"name": "DurProjectedMinPhaseCalc","type": "STRING","mode": "NULLABLE"},
{"name": "DurProjectedMLJobCalc","type": "STRING","mode": "NULLABLE"},
{"name": "DurProjectedMLPhaseCalc","type": "STRING","mode": "NULLABLE"},
{"name": "DurProjectedTLJobCalc","type": "STRING","mode": "NULLABLE"},
{"name": "DurProjectedTLPhaseCalc","type": "STRING","mode": "NULLABLE"},
{"name": "GasBackgroundAvg","type": "STRING","mode": "NULLABLE"},
{"name": "GasBackgroundMax","type": "STRING","mode": "NULLABLE"},
{"name": "GasConnectionAvg","type": "STRING","mode": "NULLABLE"},
{"name": "GasConnectionMax","type": "STRING","mode": "NULLABLE"},
{"name": "GasDrillAvg","type": "STRING","mode": "NULLABLE"},
{"name": "GasDrillMax","type": "STRING","mode": "NULLABLE"},
{"name": "GasTripAvg","type": "STRING","mode": "NULLABLE"},
{"name": "GasTripMax","type": "STRING","mode": "NULLABLE"},
{"name": "H2SMax","type": "STRING","mode": "NULLABLE"},
{"name": "HazardIDNoRptCalc","type": "STRING","mode": "NULLABLE"},
{"name": "HazardIDNoRptCumCalc","type": "STRING","mode": "NULLABLE"},
{"name": "HeadCountCalc","type": "STRING","mode": "NULLABLE"},
{"name": "IDRecJobProgramPhaseCalc","type": "STRING","mode": "NULLABLE"},
{"name": "IDRecLastCasCalc","type": "STRING","mode": "NULLABLE"},
{"name": "IDRecLastRigCalc","type": "STRING","mode": "NULLABLE"},
{"name": "IDRecNextCas","type": "STRING","mode": "NULLABLE"},
{"name": "IDRecWellBoreCalc","type": "STRING","mode": "NULLABLE"},
{"name": "IntLessonCalc","type": "STRING","mode": "NULLABLE"},
{"name": "IntProblemCalc","type": "STRING","mode": "NULLABLE"},
{"name": "LastMudDensityCalc","type": "STRING","mode": "NULLABLE"},
{"name": "MudCostPerDepthCalc","type": "STRING","mode": "NULLABLE"},
{"name": "MudCostPerDepthCumCalc","type": "STRING","mode": "NULLABLE"},
{"name": "MudCostPerDepthCumNormCalc","type": "STRING","mode": "NULLABLE"},
{"name": "MudCostPerDepthNormCalc","type": "STRING","mode": "NULLABLE"},
{"name": "PctProblemTimeCalc","type": "STRING","mode": "NULLABLE"},
{"name": "PctProblemTimeCumCalc","type": "STRING","mode": "NULLABLE"},
{"name": "PercentCompleteMaxJobCalc","type": "STRING","mode": "NULLABLE"},
{"name": "PercentCompleteMaxPhaseCalc","type": "STRING","mode": "NULLABLE"},
{"name": "PercentCompleteMinJobCalc","type": "STRING","mode": "NULLABLE"},
{"name": "PercentCompleteMinPhaseCalc","type": "STRING","mode": "NULLABLE"},
{"name": "PercentCompleteMLJobCalc","type": "STRING","mode": "NULLABLE"},
{"name": "PercentCompleteMLPhaseCalc","type": "STRING","mode": "NULLABLE"},
{"name": "PercentCompleteTLJobCalc","type": "STRING","mode": "NULLABLE"},
{"name": "PercentCompleteTLPhaseCalc","type": "STRING","mode": "NULLABLE"},
{"name": "PercentDepthRotatingCalc","type": "STRING","mode": "NULLABLE"},
{"name": "PercentDepthSlidingCalc","type": "STRING","mode": "NULLABLE"},
{"name": "PercentFieldAFECalc","type": "STRING","mode": "NULLABLE"},
{"name": "PercentTmRotatingCalc","type": "STRING","mode": "NULLABLE"},
{"name": "PercentTmSlidingCalc","type": "STRING","mode": "NULLABLE"},
{"name": "PlanNextRptOps","type": "STRING","mode": "NULLABLE"},
{"name": "RatioDurProjMaxPlanCalc","type": "STRING","mode": "NULLABLE"},
{"name": "RatioDurProjMinPlanCalc","type": "STRING","mode": "NULLABLE"},
{"name": "RatioDurProjMLPlanCalc","type": "STRING","mode": "NULLABLE"},
{"name": "RatioDurProjTLPlanCalc","type": "STRING","mode": "NULLABLE"},
{"name": "Remarks","type": "STRING","mode": "NULLABLE"},
{"name": "ReportDayCalc","type": "STRING","mode": "NULLABLE"},
{"name": "ReportNoCalc","type": "STRING","mode": "NULLABLE"},
{"name": "RigDaysCalc","type": "STRING","mode": "NULLABLE"},
{"name": "RigDaysCumCalc","type": "STRING","mode": "NULLABLE"},
{"name": "RigsCalc","type": "STRING","mode": "NULLABLE"},
{"name": "RigTime","type": "STRING","mode": "NULLABLE"},
{"name": "RigTimeCumCalc","type": "STRING","mode": "NULLABLE"},
{"name": "ROPCalc","type": "STRING","mode": "NULLABLE"},
{"name": "ROPRotatingCalc","type": "STRING","mode": "NULLABLE"},
{"name": "ROPSlidingCalc","type": "STRING","mode": "NULLABLE"},
{"name": "RptTmActOps","type": "STRING","mode": "NULLABLE"},
{"name": "SafetyIncCalc","type": "STRING","mode": "NULLABLE"},
{"name": "SafetyIncNoCalc","type": "STRING","mode": "NULLABLE"},
{"name": "SafetyIncNoCumCalc","type": "STRING","mode": "NULLABLE"},
{"name": "SafetyIncRateCalc","type": "STRING","mode": "NULLABLE"},
{"name": "SafetyIncReportCalc","type": "STRING","mode": "NULLABLE"},
{"name": "SafetyIncReportNoCalc","type": "STRING","mode": "NULLABLE"},
{"name": "SafetyIncReportNoCumCalc","type": "STRING","mode": "NULLABLE"},
{"name": "SafetyIncReportRateCalc","type": "STRING","mode": "NULLABLE"},
{"name": "StatusEnd","type": "STRING","mode": "NULLABLE"},
{"name": "SummaryOps","type": "STRING","mode": "NULLABLE"},
{"name": "TimeAheadMaxJobCalc","type": "STRING","mode": "NULLABLE"},
{"name": "TimeAheadMaxPhaseCalc","type": "STRING","mode": "NULLABLE"},
{"name": "TimeAheadMinJobCalc","type": "STRING","mode": "NULLABLE"},
{"name": "TimeAheadMinPhaseCalc","type": "STRING","mode": "NULLABLE"},
{"name": "TimeAheadMLJobCalc","type": "STRING","mode": "NULLABLE"},
{"name": "TimeAheadMLPhaseCalc","type": "STRING","mode": "NULLABLE"},
{"name": "TimeAheadTLJobCalc","type": "STRING","mode": "NULLABLE"},
{"name": "TimeAheadTLPhaseCalc","type": "STRING","mode": "NULLABLE"},
{"name": "TimeLogCode1Calc","type": "STRING","mode": "NULLABLE"},
{"name": "TimeLogCode2Calc","type": "STRING","mode": "NULLABLE"},
{"name": "TimeLogCode3Calc","type": "STRING","mode": "NULLABLE"},
{"name": "TimeLogCode4Calc","type": "STRING","mode": "NULLABLE"},
{"name": "TmCircCalc","type": "STRING","mode": "NULLABLE"},
{"name": "TmCircCumCalc","type": "STRING","mode": "NULLABLE"},
{"name": "TmCircTripOtherCalc","type": "STRING","mode": "NULLABLE"},
{"name": "TmCircTripOtherCumCalc","type": "STRING","mode": "NULLABLE"},
{"name": "TmDrillCalc","type": "STRING","mode": "NULLABLE"},
{"name": "TmDrillCumCalc","type": "STRING","mode": "NULLABLE"},
{"name": "TmDrillCumNoExcCalc","type": "STRING","mode": "NULLABLE"},
{"name": "TmDrillNoExcCalc","type": "STRING","mode": "NULLABLE"},
{"name": "TmOtherCalc","type": "STRING","mode": "NULLABLE"},
{"name": "TmOtherCumCalc","type": "STRING","mode": "NULLABLE"},
{"name": "TmRotatingCalc","type": "STRING","mode": "NULLABLE"},
{"name": "TmSlidingCalc","type": "STRING","mode": "NULLABLE"},
{"name": "TmTripCalc","type": "STRING","mode": "NULLABLE"},
{"name": "TmTripCumCalc","type": "STRING","mode": "NULLABLE"},
{"name": "UserBoolean1","type": "STRING","mode": "NULLABLE"},
{"name": "UserBoolean2","type": "STRING","mode": "NULLABLE"},
{"name": "UserNum1","type": "STRING","mode": "NULLABLE"},
{"name": "UserNum2","type": "STRING","mode": "NULLABLE"},
{"name": "UserNum3","type": "STRING","mode": "NULLABLE"},
{"name": "UserNum4","type": "STRING","mode": "NULLABLE"},
{"name": "UserNum5","type": "STRING","mode": "NULLABLE"},
{"name": "UserTxt1","type": "STRING","mode": "NULLABLE"},
{"name": "UserTxt2","type": "STRING","mode": "NULLABLE"},
{"name": "UserTxt3","type": "STRING","mode": "NULLABLE"},
{"name": "UserTxt4","type": "STRING","mode": "NULLABLE"},
{"name": "UserTxt5","type": "STRING","mode": "NULLABLE"},
{"name": "VolBitToShoeCalc","type": "STRING","mode": "NULLABLE"},
{"name": "VolCasTopToRiserTopCalc","type": "STRING","mode": "NULLABLE"},
{"name": "VolHoleCalc","type": "STRING","mode": "NULLABLE"},
{"name": "VolHoleVarCalc","type": "STRING","mode": "NULLABLE"},
{"name": "VolMudActiveCalc","type": "STRING","mode": "NULLABLE"},
{"name": "VolMudActiveVarCalc","type": "STRING","mode": "NULLABLE"},
{"name": "VolMudAddedCalc","type": "STRING","mode": "NULLABLE"},
{"name": "VolMudAddedCumCalc","type": "STRING","mode": "NULLABLE"},
{"name": "VolMudAddedLossVarCalc","type": "STRING","mode": "NULLABLE"},
{"name": "VolMudAddedLossVarCumCalc","type": "STRING","mode": "NULLABLE"},
{"name": "VolMudBalanceCalc","type": "STRING","mode": "NULLABLE"},
{"name": "VolMudLossCalc","type": "STRING","mode": "NULLABLE"},
{"name": "VolMudLossCumCalc","type": "STRING","mode": "NULLABLE"},
{"name": "VolMudTankCalc","type": "STRING","mode": "NULLABLE"},
{"name": "VolPumpToBitCalc","type": "STRING","mode": "NULLABLE"},
{"name": "VolShoeToCasTopCalc","type": "STRING","mode": "NULLABLE"},
{"name": "WeightMetalRecovTotalCalc","type": "STRING","mode": "NULLABLE"},
{"name": "syslockdate","type": "STRING","mode": "NULLABLE"},
{"name": "sysmoddate","type": "STRING","mode": "NULLABLE"},
{"name": "sysmoduser","type": "STRING","mode": "NULLABLE"},
{"name": "syscreatedate","type": "STRING","mode": "NULLABLE"},
{"name": "syscreateuser","type": "STRING","mode": "NULLABLE"}
]