[
{"name": "idwell","type": "STRING","mode": "REQUIRED"},
{"name": "Agent","type": "STRING","mode": "NULLABLE"},
{"name": "Area","type": "STRING","mode": "NULLABLE"},
{"name": "Basin","type": "STRING","mode": "NULLABLE"},
{"name": "BasinCode","type": "STRING","mode": "NULLABLE"},
{"name": "CasingRunCalc","type": "STRING","mode": "NULLABLE"},
{"name": "Com","type": "STRING","mode": "NULLABLE"},
{"name": "Country","type": "STRING","mode": "NULLABLE"},
{"name": "County","type": "STRING","mode": "NULLABLE"},
{"name": "CurrentPrimaryFluidDesCalc","type": "STRING","mode": "NULLABLE"},
{"name": "CurrentWellStatus1","type": "STRING","mode": "NULLABLE"},
{"name": "CurrentWellStatus1Calc","type": "STRING","mode": "NULLABLE"},
{"name": "CurrentWellStatus2","type": "STRING","mode": "NULLABLE"},
{"name": "CurrentWellStatus2Calc","type": "STRING","mode": "NULLABLE"},
{"name": "CurrentWellTyp1Calc","type": "STRING","mode": "NULLABLE"},
{"name": "CurrentWellTyp2Calc","type": "STRING","mode": "NULLABLE"},
{"name": "DirectionsToWell","type": "STRING","mode": "NULLABLE"},
{"name": "DisplaceUnwrapCalc","type": "STRING","mode": "NULLABLE"},
{"name": "District","type": "STRING","mode": "NULLABLE"},
{"name": "Division","type": "STRING","mode": "NULLABLE"},
{"name": "DivisionCode","type": "STRING","mode": "NULLABLE"},
{"name": "DtTmAbandon","type": "STRING","mode": "NULLABLE"},
{"name": "DtTmFirstProd","type": "STRING","mode": "NULLABLE"},
{"name": "DtTmRR","type": "STRING","mode": "NULLABLE"},
{"name": "DtTmSpud","type": "STRING","mode": "NULLABLE"},
{"name": "DtTmStatusCalc","type": "STRING","mode": "NULLABLE"},
{"name": "DtTmWellClass","type": "STRING","mode": "NULLABLE"},
{"name": "DtTmWellLic","type": "STRING","mode": "NULLABLE"},
{"name": "DtTmZoneOnProdFirstCalc","type": "STRING","mode": "NULLABLE"},
{"name": "DurSpudtoTodayCalc","type": "STRING","mode": "NULLABLE"},
{"name": "ElvCasFlange","type": "STRING","mode": "NULLABLE"},
{"name": "ElvGround","type": "STRING","mode": "NULLABLE"},
{"name": "ElvLAT","type": "STRING","mode": "NULLABLE"},
{"name": "ElvMudLine","type": "STRING","mode": "NULLABLE"},
{"name": "ElvOrigKB","type": "STRING","mode": "NULLABLE"},
{"name": "ElvTubHead","type": "STRING","mode": "NULLABLE"},
{"name": "EnvironmentSensitive","type": "STRING","mode": "NULLABLE"},
{"name": "EWDist","type": "STRING","mode": "NULLABLE"},
{"name": "EWFlag","type": "STRING","mode": "NULLABLE"},
{"name": "FieldCode","type": "STRING","mode": "NULLABLE"},
{"name": "FieldName","type": "STRING","mode": "NULLABLE"},
{"name": "FieldOffice","type": "STRING","mode": "NULLABLE"},
{"name": "FieldOfficeCode","type": "STRING","mode": "NULLABLE"},
{"name": "GovAuthority","type": "STRING","mode": "NULLABLE"},
{"name": "HiH2S","type": "STRING","mode": "NULLABLE"},
{"name": "HiSITP","type": "STRING","mode": "NULLABLE"},
{"name": "IDRecElvHistory","type": "STRING","mode": "NULLABLE"},
{"name": "IDRecProblemCalc","type": "STRING","mode": "NULLABLE"},
{"name": "IDRecProdSettingCalc","type": "STRING","mode": "NULLABLE"},
{"name": "KBtoCasCalc","type": "STRING","mode": "NULLABLE"},
{"name": "KBtoGrdCalc","type": "STRING","mode": "NULLABLE"},
{"name": "KBtoMudCalc","type": "STRING","mode": "NULLABLE"},
{"name": "KBtoOtherCalc","type": "STRING","mode": "NULLABLE"},
{"name": "KBtoTubCalc","type": "STRING","mode": "NULLABLE"},
{"name": "LastJobCalc","type": "STRING","mode": "NULLABLE"},
{"name": "LastJobReportCalc","type": "STRING","mode": "NULLABLE"},
{"name": "Latitude","type": "STRING","mode": "NULLABLE"},
{"name": "LatLongDatum","type": "STRING","mode": "NULLABLE"},
{"name": "LatLongSource","type": "STRING","mode": "NULLABLE"},
{"name": "Lease","type": "STRING","mode": "NULLABLE"},
{"name": "LeaseCode","type": "STRING","mode": "NULLABLE"},
{"name": "LegalSurveyLoc","type": "STRING","mode": "NULLABLE"},
{"name": "LegalSurveySubTyp","type": "STRING","mode": "NULLABLE"},
{"name": "LegalSurveyTyp","type": "STRING","mode": "NULLABLE"},
{"name": "LocalTimeZone","type": "STRING","mode": "NULLABLE"},
{"name": "LocationNote","type": "STRING","mode": "NULLABLE"},
{"name": "LocationRef","type": "STRING","mode": "NULLABLE"},
{"name": "LocationSensitive","type": "STRING","mode": "NULLABLE"},
{"name": "LocationTyp","type": "STRING","mode": "NULLABLE"},
{"name": "Longitude","type": "STRING","mode": "NULLABLE"},
{"name": "NSDist","type": "STRING","mode": "NULLABLE"},
{"name": "NSFlag","type": "STRING","mode": "NULLABLE"},
{"name": "Operated","type": "STRING","mode": "NULLABLE"},
{"name": "Operator","type": "STRING","mode": "NULLABLE"},
{"name": "OperatorCode","type": "STRING","mode": "NULLABLE"},
{"name": "OthertoCasCalc","type": "STRING","mode": "NULLABLE"},
{"name": "OthertoGrdCalc","type": "STRING","mode": "NULLABLE"},
{"name": "OthertoMudCalc","type": "STRING","mode": "NULLABLE"},
{"name": "OthertoTubCalc","type": "STRING","mode": "NULLABLE"},
{"name": "PadCode","type": "STRING","mode": "NULLABLE"},
{"name": "PadName","type": "STRING","mode": "NULLABLE"},
{"name": "PBTDAllCalc","type": "STRING","mode": "NULLABLE"},
{"name": "Platform","type": "STRING","mode": "NULLABLE"},
{"name": "PrimaryFluidDes","type": "STRING","mode": "NULLABLE"},
{"name": "ProblemFlag","type": "STRING","mode": "NULLABLE"},
{"name": "ProblemLast12MonthCalc","type": "STRING","mode": "NULLABLE"},
{"name": "ProblemTotalCalc","type": "STRING","mode": "NULLABLE"},
{"name": "RiskClass","type": "STRING","mode": "NULLABLE"},
{"name": "Slot","type": "STRING","mode": "NULLABLE"},
{"name": "StateProv","type": "STRING","mode": "NULLABLE"},
{"name": "SurfaceRights","type": "STRING","mode": "NULLABLE"},
{"name": "TDAllCalc","type": "STRING","mode": "NULLABLE"},
{"name": "TDCalc","type": "STRING","mode": "NULLABLE"},
{"name": "TDTVDAllCalc","type": "STRING","mode": "NULLABLE"},
{"name": "TownDist","type": "STRING","mode": "NULLABLE"},
{"name": "TownFlag","type": "STRING","mode": "NULLABLE"},
{"name": "TownName","type": "STRING","mode": "NULLABLE"},
{"name": "TownStateProv","type": "STRING","mode": "NULLABLE"},
{"name": "UserBoolean1","type": "STRING","mode": "NULLABLE"},
{"name": "UserBoolean2","type": "STRING","mode": "NULLABLE"},
{"name": "UserBoolean3","type": "STRING","mode": "NULLABLE"},
{"name": "UserBoolean4","type": "STRING","mode": "NULLABLE"},
{"name": "UserBoolean5","type": "STRING","mode": "NULLABLE"},
{"name": "UserDtTm1","type": "STRING","mode": "NULLABLE"},
{"name": "UserDtTm2","type": "STRING","mode": "NULLABLE"},
{"name": "UserDtTm3","type": "STRING","mode": "NULLABLE"},
{"name": "UserDtTm4","type": "STRING","mode": "NULLABLE"},
{"name": "UserDtTm5","type": "STRING","mode": "NULLABLE"},
{"name": "UserNum1","type": "STRING","mode": "NULLABLE"},
{"name": "UserNum2","type": "STRING","mode": "NULLABLE"},
{"name": "UserNum3","type": "STRING","mode": "NULLABLE"},
{"name": "UserNum4","type": "STRING","mode": "NULLABLE"},
{"name": "UserNum5","type": "STRING","mode": "NULLABLE"},
{"name": "UserNum6","type": "STRING","mode": "NULLABLE"},
{"name": "UserTxt1","type": "STRING","mode": "NULLABLE"},
{"name": "UserTxt10","type": "STRING","mode": "NULLABLE"},
{"name": "UserTxt2","type": "STRING","mode": "NULLABLE"},
{"name": "UserTxt3","type": "STRING","mode": "NULLABLE"},
{"name": "UserTxt4","type": "STRING","mode": "NULLABLE"},
{"name": "UserTxt5","type": "STRING","mode": "NULLABLE"},
{"name": "UserTxt6","type": "STRING","mode": "NULLABLE"},
{"name": "UserTxt7","type": "STRING","mode": "NULLABLE"},
{"name": "UserTxt8","type": "STRING","mode": "NULLABLE"},
{"name": "UserTxt9","type": "STRING","mode": "NULLABLE"},
{"name": "UTMGridZone","type": "STRING","mode": "NULLABLE"},
{"name": "UTMSource","type": "STRING","mode": "NULLABLE"},
{"name": "UTMx","type": "STRING","mode": "NULLABLE"},
{"name": "UTMy","type": "STRING","mode": "NULLABLE"},
{"name": "WaterDepth","type": "STRING","mode": "NULLABLE"},
{"name": "WaterDepthRef","type": "STRING","mode": "NULLABLE"},
{"name": "WellboreNoCalc","type": "STRING","mode": "NULLABLE"},
{"name": "WellClass","type": "STRING","mode": "NULLABLE"},
{"name": "WellConfig","type": "STRING","mode": "NULLABLE"},
{"name": "WellIDA","type": "STRING","mode": "NULLABLE"},
{"name": "WellIDB","type": "STRING","mode": "NULLABLE"},
{"name": "WellIDC","type": "STRING","mode": "NULLABLE"},
{"name": "WellIDD","type": "STRING","mode": "NULLABLE"},
{"name": "WellIDE","type": "STRING","mode": "NULLABLE"},
{"name": "WellLicensee","type": "STRING","mode": "NULLABLE"},
{"name": "WellLicenseNo","type": "STRING","mode": "NULLABLE"},
{"name": "WellName","type": "STRING","mode": "NULLABLE"},
{"name": "WellTyp1","type": "STRING","mode": "NULLABLE"},
{"name": "WellTyp2","type": "STRING","mode": "NULLABLE"},
{"name": "idrecproblemcalctk","type": "STRING","mode": "NULLABLE"},
{"name": "idrecprodsettingcalctk","type": "STRING","mode": "NULLABLE"},
{"name": "syslockdate","type": "STRING","mode": "NULLABLE"},
{"name": "sysmoddate","type": "STRING","mode": "NULLABLE"},
{"name": "sysmoduser","type": "STRING","mode": "NULLABLE"},
{"name": "syscreatedate","type": "STRING","mode": "NULLABLE"},
{"name": "syscreateuser","type": "STRING","mode": "NULLABLE"},
{"name": "sysmoddatedb","type": "STRING","mode": "NULLABLE"},
{"name": "sysmoduserdb","type": "STRING","mode": "NULLABLE"}
]